<?xml version="1.0" encoding="UTF-8" standalone="no"?>
<svg
   xmlns:dc="http://purl.org/dc/elements/1.1/"
   xmlns:cc="http://creativecommons.org/ns#"
   xmlns:rdf="http://www.w3.org/1999/02/22-rdf-syntax-ns#"
   xmlns:svg="http://www.w3.org/2000/svg"
   xmlns="http://www.w3.org/2000/svg"
   xmlns:sodipodi="http://sodipodi.sourceforge.net/DTD/sodipodi-0.dtd"
   xmlns:inkscape="http://www.inkscape.org/namespaces/inkscape"
   width="16"
   height="16"
   viewBox="0 0 4.2333332 4.233333"
   version="1.1"
   id="svg1492"
   inkscape:export-filename="/home/thomas/Git/kokosnote/favicon.ico.png"
   inkscape:export-xdpi="96"
   inkscape:export-ydpi="96"
   sodipodi:docname="logo.svg"
   inkscape:version="1.0.2 (e86c870879, 2021-01-15)">
  <defs
     id="defs1486" />
  <sodipodi:namedview
     id="base"
     pagecolor="#ffffff"
     bordercolor="#666666"
     borderopacity="1.0"
     inkscape:pageopacity="0.0"
     inkscape:pageshadow="2"
     inkscape:zoom="32"
     inkscape:cx="9.892218"
     inkscape:cy="5.678369"
     inkscape:document-units="mm"
     inkscape:current-layer="layer1"
     inkscape:document-rotation="0"
     showgrid="true"
     units="px"
     inkscape:window-width="1920"
     inkscape:window-height="1027"
     inkscape:window-x="0"
     inkscape:window-y="0"
     inkscape:window-maximized="1">
    <inkscape:grid
       type="xygrid"
       id="grid2055" />
  </sodipodi:namedview>
  <metadata
     id="metadata1489">
    <rdf:RDF>
      <cc:Work
         rdf:about="">
        <dc:format>image/svg+xml</dc:format>
        <dc:type
           rdf:resource="http://purl.org/dc/dcmitype/StillImage" />
        <dc:title></dc:title>
      </cc:Work>
    </rdf:RDF>
  </metadata>
  <g
     inkscape:label="Layer 1"
     inkscape:groupmode="layer"
     id="layer1">
    <path
       style="fill:#8b5e3c;fill-opacity:1;stroke:none;stroke-width:0.264583px;stroke-linecap:butt;stroke-linejoin:miter;stroke-opacity:1"
       d="M 2.3804469,3.9740424 3.7015456,2.6493103 2.64285,2.3861806 1.8480108,1.5935213 1.5819744,0.53555229 0.2608756,1.8602843 0.52691198,2.9182533 1.3217511,3.7109126 2.3804469,3.9740424"
       id="path2390" />
    <path
       style="fill:#553211;fill-opacity:1;stroke:none;stroke-width:0.264583px;stroke-linecap:butt;stroke-linejoin:miter;stroke-opacity:0.314889"
       d="M 1.3217511,3.7109126 2.64285,2.3861806 3.7015456,2.6493103 2.3804469,3.9740424 Z"
       id="path2392" />
    <path
       style="fill:#a77956;fill-opacity:1;stroke:none;stroke-width:0.264583px;stroke-linecap:butt;stroke-linejoin:miter;stroke-opacity:1"
       d="M 0.52691198,2.9182533 1.8480108,1.5935213 1.5819744,0.53555229 0.2608756,1.8602843 Z"
       id="path2394" />
    <path
       style="fill:#150e08;fill-opacity:0.563374;stroke:none;stroke-width:0.264583px;stroke-linecap:butt;stroke-linejoin:miter;stroke-opacity:1"
       d="M 2.3804469,3.9740424 2.9088863,3.4441495 1.8501907,3.1810198 1.0553515,2.3883605 0.78931512,1.3303915 0.2608756,1.8602843 0.52691198,2.9182533 1.3217511,3.7109126 Z"
       id="path2396" />
    <path
       style="fill:#c7d5d3;fill-opacity:1;stroke:none;stroke-width:0.264583px;stroke-linecap:butt;stroke-linejoin:miter;stroke-opacity:1"
       d="M 3.7015456,2.6493103 2.64285,2.3861806 1.8480108,1.5935213 1.5819744,0.53555229 3.9628588,0.26769923 3.7015456,2.6493103"
       id="path2398" />
    <path
       style="fill:#748381;fill-opacity:1;stroke:none;stroke-width:0.264583px;stroke-linecap:butt;stroke-linejoin:miter;stroke-opacity:1"
       d="M 2.64285,2.3861806 3.9628588,0.26769923 3.7015456,2.6493103 2.64285,2.3861806"
       id="path2400" />
    <path
       style="fill:#e5ecec;fill-opacity:1;stroke:none;stroke-width:0.264583px;stroke-linecap:butt;stroke-linejoin:miter;stroke-opacity:1"
       d="M 3.9628588,0.26769923 1.8480108,1.5935213 1.5819744,0.53555229 Z"
       id="path2402" />
    <path
       style="fill:#2a3937;fill-opacity:0.6255163;stroke:none;stroke-width:0.264583px;stroke-linecap:butt;stroke-linejoin:miter;stroke-opacity:1"
       d="M 2.9104167,0.26458333 3.175,0.79374999 3.4395833,1.0583333 3.96875,1.3229167 l 0,-1.05833337 z"
       id="path2529"
       sodipodi:nodetypes="cccccc" />
    <path
       id="path2388"
       style="fill:none;stroke:#1d130b;stroke-width:0.265;stroke-linecap:round;stroke-linejoin:bevel;stroke-miterlimit:4;stroke-dasharray:none;stroke-opacity:1"
       d="M 2.9088863,3.4441495 1.8501907,3.1810198 1.0553515,2.3883605 0.78931512,1.3303915 M 3.7015457,2.6493103 2.3804469,3.9740424 1.3217512,3.7109126 0.52691199,2.9182532 0.2608756,1.8602843 1.5819744,0.53555219 m 0,0 L 1.8480108,1.5935213 2.64285,2.3861806 3.7015457,2.6493103 3.96875,0.26854244 Z" />
  </g>
</svg>
